Evan Atchison - Do Free Throws Win Basketball Teams Games?
…
Data

For this experiment, I have collected data from each regular season game from the 2017-2018 Louisiana State University (LSU) men’s basketball season. The reason for this is LSU made 13.9 per game that season, very close to the overall NCAA average. In this data set, we have opponent faced, free throws made, free throws attempted, and the outcome of the game (Win or Loss).

Rows: 30 Columns: 4
── Column specification ────────────────────────────────────────────────────────
Delimiter: ","
chr (2): Opponent, Result
dbl (2): FTM, FTA

ℹ Use `spec()` to retrieve the full column specification for this data.
ℹ Specify the column types or set `show_col_types = FALSE` to quiet this message.

# A tibble: 30 × 4
   Opponent            FTM   FTA Result
   <chr>             <dbl> <dbl> <chr> 
 1 Alcorn State         16    24 Win   
 2 Samford              19    20 Win   
 3 Michigan             16    23 Win   
 4 Notre Dame            9    12 Loss  
 5 Marquette            23    26 Loss  
 6 UT Martin            12    20 Win   
 7 UNCW                 17    20 Win   
 8 Houston              17    20 Win   
 9 Stephen F. Austin    23    29 Loss  
10 Sam Houston State    11    20 Win   
# ℹ 20 more rows
…
}

Rows: 31 Columns: 4
── Column specification ────────────────────────────────────────────────────────
Delimiter: ","
chr (2): team, result
dbl (2): free_throws_made, free_throws_att

ℹ Use `spec()` to retrieve the full column specification for this data.
ℹ Specify the column types or set `show_col_types = FALSE` to quiet this message.

# A tibble: 31 × 4
   team             free_throws_made free_throws_att result
   <chr>                       <dbl>           <dbl> <chr> 
 1 Central Michigan               21              27 Win   
 2 Fordham                         7              10 Win   
 3 Southern                        5               9 Win   
 4 Michigan State                 13              18 Loss  
 5 Maryland                       19              23 Win   
 6 Western Illinois               13              20 Win   
 7 Arkansas                       23              33 Loss  
 8 California                      9              17 Loss  
 9 Purdue                         21              31 Win   
10 McNeese State                   8              10 Win   
# ℹ 21 more rows
…
